natural language Processing in R: Sentiment Analysis of Kenya’s Star Newspaper on Friday July 15, 2022
…
sonko

However, some words while useful in writing, do not carry inherent
meaning. The words tend to dominate most of our writing. Let us see the
most common words in our text.

star_titles %>% 
  
  unnest_tokens(word, my_titles) %>% 
  
  count(word) %>% 
  
  arrange(desc(n))

## # A tibble: 422 × 2
##    word      n
##    <chr> <int>
##  1 in       24
##  2 to       24
##  3 for      12
##  4 and       9
##  5 kenya     9
##  6 of        9
##  7 the       9
##  8 why       7
##  9 with      7
## 10 world     7
## # … with 412 more rows
…
